\relax 
\@writefile{lot}{\contentsline {table}{\numberline {1}{\ignorespaces error rate comparison between 13pct and 80sec architectures}}{3}}
\@writefile{lot}{\contentsline {table}{\numberline {2}{\ignorespaces error rate of 2-layer trained cnn}}{3}}
