\relax 
\newlabel{randvslearned}{{}{1}}
\@writefile{lot}{\contentsline {table}{\numberline {1}{\ignorespaces error rate for random filters and learned filters}}{1}}
\newlabel{randvslearned}{{}{2}}
\@writefile{lot}{\contentsline {table}{\numberline {2}{\ignorespaces error rate for random filters and learned filters}}{2}}
